Arquivo,Linhas geradas,Linhas cód. final,Aproveitamento (%)
Models/Afastamento.cs,136,58,88.03
Models/Documento.cs,56,24,80.42
Models/Entity.cs,31,20,74.41
Models/Mandato.cs,56,31,78.08
Models/Onus.cs,7,15,53.88
Models/Parecer.cs,61,27,79.91
Models/Parentesco.cs,43,23,78.39
Models/Pessoa.cs,82,32,64.09
Models/Professor.cs,56,28,89.93
Models/Secretario.cs,20,13,90.61
Models/SituacaoPedidoAfastamento.cs,7,21,69.44
Models/TipoAfastamento.cs,7,14,58.37
Models/TipoMandato.cs,7,14,53.59
Models/TipoParecer.cs,7,14,56.89
Models/TipoParentesco.cs,7,14,57.64
